<?xml version="1.0" encoding="UTF-8" standalone="no"?>
<svg viewBox="0 0 24 24" xmlns="http://www.w3.org/2000/svg">
<rect width="24" height="24" ry="1.5" fill="#0a0" />
<g style="fill:none;stroke:#f7f7f7;stroke-width:1.6">
  <rect width="15.8" height="6.6" x="2.3" y="3.6" ry="0.5" />
  <path d="M13.95,13.8 H2.8 c -0.28,0 -0.5,0.22 -0.5,0.5 v 5.6 c 0,0.28 0.22,0.5 0.5,0.5 H13.5" />
  <circle cx="17.4" cy="17.4" r="4.9" />
  <path stroke-linecap="round" stroke-linejoin="round" d="M17.4,14.6 V17.4 L19.3 18.9"/>
</g>
<g fill="#f7f7f7">
  <circle cx="6" cy="6.9" r="1.7" />
  <circle cx="6" cy="17.1" r="1.7" />
</g>
</svg>
