<?xml version="1.0" encoding="UTF-8"?>
<!DOCTYPE svg PUBLIC "-//W3C//DTD SVG 1.1//EN" "http://www.w3.org/Graphics/SVG/1.1/DTD/svg11.dtd">
<svg xmlns="http://www.w3.org/2000/svg" version="1.1" viewBox="0 0 24 24">
<g fill="none" stroke="#00c2c8" stroke-width="1.8">
<rect width="16.6" height="6.6" x="3.7" y="3.6" ry="0.5" />
<rect width="16.6" height="6.6" x="3.7" y="13.8" ry="0.5" />
</g>
<g fill="#00c2c8">
<circle cx="7.4" cy="6.9" r="1.7" />
<circle cx="7.4" cy="17.1" r="1.7" />
</g>
</svg>
