<?xml version="1.0" encoding="UTF-8"?>
<!DOCTYPE svg PUBLIC "-//W3C//DTD SVG 1.1//EN" "http://www.w3.org/Graphics/SVG/1.1/DTD/svg11.dtd">
<svg xmlns="http://www.w3.org/2000/svg" version="1.1" viewBox="0 0 24 24">
<circle cx="18.51" cy="7.22" r="1" fill="#00c2c8" />
<g fill="none" stroke="#00c2c8" stroke-linecap="round">
<path d="m13.4 3.5v3" stroke-width="0.9" />
<path d="m16.8 5.44a2.85 2.85 0 0 1 3.37-0.1" />
<path d="m15.87 3.9a4.37 4.37 0 0 1 5.17-0.16" />
<path d="m14.69 2.45a6.23 6.23 0 0 1 7.46-0.21" />
</g>
<g fill="none" stroke="#00c2c8" stroke-width="1.5">
<rect x="7.7" y="6.4" width="8" height="4.2" ry="0.2" />
<rect x="1.6" y="18.2" width="8" height="4.2" ry="0.2" />
<rect x="14" y="18.2" width="8" height="4.2" ry="0.2" />
</g>
<g fill="none" stroke="#00c2c8" stroke-width="1.5" stroke-miterlimit="4" stroke-linejoin="round">
<path d="m5.88 17.9v-3.4h3.83l0.04-3.4" />
<path d="m17.71 17.9v-3.4h-3.83l-0.04-3.4" />
</g>
</svg>
